EESchema Schematic File Version 4
EELAYER 30 0
EELAYER END
$Descr A4 11693 8268
encoding utf-8
Sheet 1 1
Title ""
Date ""
Rev ""
Comp ""
Comment1 ""
Comment2 ""
Comment3 ""
Comment4 ""
$EndDescr
$Comp
L Connector:Raspberry_Pi_2_3 J1
U 1 1 60EF955C
P 6850 3400
F 0 "J1" H 7350 4700 50  0000 C CNN
F 1 "RPi40" H 6300 4700 50  0000 C CNN
F 2 "Connector_PinSocket_2.54mm:PinSocket_2x20_P2.54mm_Vertical" H 6850 3400 50  0001 C CNN
F 3 "https://www.raspberrypi.org/documentation/hardware/raspberrypi/schematics/rpi_SCH_3bplus_1p0_reduced.pdf" H 6850 3400 50  0001 C CNN
	1    6850 3400
	1    0    0    -1  
$EndComp
Text Label 5700 3800 0    50   ~ 0
TMS
Text Label 5700 3700 0    50   ~ 0
TDI
Text Label 5700 3600 0    50   ~ 0
TDO
Text Label 5700 4100 0    50   ~ 0
TCK
$Comp
L 74xx:74HC595 U1
U 1 1 60F01995
P 1800 2000
F 0 "U1" H 1950 2600 50  0000 C CNN
F 1 "74HC595" H 1500 2600 50  0000 C CNN
F 2 "Package_DIP:DIP-16_W7.62mm_Socket" H 1800 2000 50  0001 C CNN
F 3 "http://www.ti.com/lit/ds/symlink/sn74hc595.pdf" H 1800 2000 50  0001 C CNN
	1    1800 2000
	1    0    0    -1  
$EndComp
$Comp
L 74xx:74HC595 U2
U 1 1 60F02A98
P 1800 3900
F 0 "U2" H 1950 4500 50  0000 C CNN
F 1 "74HC595" H 1500 4500 50  0000 C CNN
F 2 "Package_DIP:DIP-16_W7.62mm_Socket" H 1800 3900 50  0001 C CNN
F 3 "http://www.ti.com/lit/ds/symlink/sn74hc595.pdf" H 1800 3900 50  0001 C CNN
	1    1800 3900
	1    0    0    -1  
$EndComp
$Comp
L 74xx:74HC595 U3
U 1 1 60F03521
P 1800 6000
F 0 "U3" H 1950 6600 50  0000 C CNN
F 1 "74HC595" H 1500 6600 50  0000 C CNN
F 2 "Package_DIP:DIP-16_W7.62mm_Socket" H 1800 6000 50  0001 C CNN
F 3 "http://www.ti.com/lit/ds/symlink/sn74hc595.pdf" H 1800 6000 50  0001 C CNN
	1    1800 6000
	1    0    0    -1  
$EndComp
$Comp
L power:GND #PWR02
U 1 1 60F11FEF
P 1800 4600
F 0 "#PWR02" H 1800 4350 50  0001 C CNN
F 1 "GND" H 1805 4427 50  0000 C CNN
F 2 "" H 1800 4600 50  0001 C CNN
F 3 "" H 1800 4600 50  0001 C CNN
	1    1800 4600
	1    0    0    -1  
$EndComp
$Comp
L power:GND #PWR01
U 1 1 60F12B31
P 1800 2750
F 0 "#PWR01" H 1800 2500 50  0001 C CNN
F 1 "GND" H 1805 2577 50  0000 C CNN
F 2 "" H 1800 2750 50  0001 C CNN
F 3 "" H 1800 2750 50  0001 C CNN
	1    1800 2750
	1    0    0    -1  
$EndComp
$Comp
L power:GND #PWR03
U 1 1 60F13B83
P 1800 6700
F 0 "#PWR03" H 1800 6450 50  0001 C CNN
F 1 "GND" H 1805 6527 50  0000 C CNN
F 2 "" H 1800 6700 50  0001 C CNN
F 3 "" H 1800 6700 50  0001 C CNN
	1    1800 6700
	1    0    0    -1  
$EndComp
$Comp
L power:+3V3 #PWR05
U 1 1 60F14EB3
P 950 850
F 0 "#PWR05" H 950 700 50  0001 C CNN
F 1 "+3V3" H 965 1023 50  0000 C CNN
F 2 "" H 950 850 50  0001 C CNN
F 3 "" H 950 850 50  0001 C CNN
	1    950  850 
	1    0    0    -1  
$EndComp
$Comp
L power:GND #PWR07
U 1 1 60F16A80
P 6800 4850
F 0 "#PWR07" H 6800 4600 50  0001 C CNN
F 1 "GND" H 6805 4677 50  0000 C CNN
F 2 "" H 6800 4850 50  0001 C CNN
F 3 "" H 6800 4850 50  0001 C CNN
	1    6800 4850
	1    0    0    -1  
$EndComp
$Comp
L RemoteLabPiHAT-rescue:PMOD-Device-x2-Type-Generic-Alt-pmod JA1
U 1 1 60F1987A
P 3650 2750
F 0 "JA1" H 3750 3630 60  0000 C CNN
F 1 "PMOD-Device-x2-Type-Generic-Alt" H 3750 3540 39  0000 C CNN
F 2 "pmod-conn_6x2:pmod_pin_array_6x2" H 3750 2640 39  0000 C CNN
F 3 "" H 3750 3050 60  0000 C CNN
	1    3650 2750
	1    0    0    -1  
$EndComp
Text Label 2200 1600 0    50   ~ 0
P1_1
Text Label 4150 2200 0    50   ~ 0
P1_1
Text Label 2200 1700 0    50   ~ 0
P1_2
Text Label 4150 2300 0    50   ~ 0
P1_2
Text Label 2200 1800 0    50   ~ 0
P1_3
Text Label 4150 2400 0    50   ~ 0
P1_3
Text Label 2200 1900 0    50   ~ 0
P1_4
Text Label 2200 2000 0    50   ~ 0
P1_5
Text Label 2200 2100 0    50   ~ 0
P1_6
Text Label 2200 2200 0    50   ~ 0
P1_7
Text Label 2200 2300 0    50   ~ 0
P1_8
Text Label 4150 2500 0    50   ~ 0
P1_4
Text Label 3200 2200 0    50   ~ 0
P1_5
Text Label 3200 2300 0    50   ~ 0
P1_6
Text Label 3200 2400 0    50   ~ 0
P1_7
Text Label 3200 2500 0    50   ~ 0
P1_8
$Comp
L power:GND #PWR012
U 1 1 60F23C0C
P 4700 2600
F 0 "#PWR012" H 4700 2350 50  0001 C CNN
F 1 "GND" H 4705 2427 50  0000 C CNN
F 2 "" H 4700 2600 50  0001 C CNN
F 3 "" H 4700 2600 50  0001 C CNN
	1    4700 2600
	1    0    0    -1  
$EndComp
$Comp
L power:GND #PWR09
U 1 1 60F23C89
P 3200 2600
F 0 "#PWR09" H 3200 2350 50  0001 C CNN
F 1 "GND" H 3205 2427 50  0000 C CNN
F 2 "" H 3200 2600 50  0001 C CNN
F 3 "" H 3200 2600 50  0001 C CNN
	1    3200 2600
	1    0    0    -1  
$EndComp
$Comp
L Device:Jumper JP1
U 1 1 60F258F4
P 1650 1000
F 0 "JP1" H 1650 1264 50  0000 C CNN
F 1 "Jumper" H 1650 1173 50  0000 C CNN
F 2 "Connector_PinHeader_2.54mm:PinHeader_1x02_P2.54mm_Vertical" H 1650 1000 50  0001 C CNN
F 3 "~" H 1650 1000 50  0001 C CNN
	1    1650 1000
	1    0    0    -1  
$EndComp
Wire Wire Line
	1350 1000 950  1000
Wire Wire Line
	1950 1000 2350 1000
Text Label 2000 1000 0    50   ~ 0
PMOD_VCC
Text Label 4150 2700 0    50   ~ 0
PMOD_VCC
$Comp
L RemoteLabPiHAT-rescue:PMOD-Device-x2-Type-Generic-Alt-pmod JB1
U 1 1 60F5A737
P 3650 4300
F 0 "JB1" H 3750 5180 60  0000 C CNN
F 1 "PMOD-Device-x2-Type-Generic-Alt" H 3750 5090 39  0000 C CNN
F 2 "pmod-conn_6x2:pmod_pin_array_6x2" H 3750 4190 39  0001 C CNN
F 3 "" H 3750 4600 60  0000 C CNN
	1    3650 4300
	1    0    0    -1  
$EndComp
Text Label 4150 3750 0    50   ~ 0
P2_1
Text Label 4150 3850 0    50   ~ 0
P2_2
Text Label 4150 3950 0    50   ~ 0
P2_3
Text Label 4150 4050 0    50   ~ 0
P2_4
Text Label 3200 3750 0    50   ~ 0
P2_5
Text Label 3200 3850 0    50   ~ 0
P2_6
Text Label 3200 3950 0    50   ~ 0
P2_7
Text Label 3200 4050 0    50   ~ 0
P2_8
$Comp
L power:GND #PWR013
U 1 1 60F5A769
P 4700 4150
F 0 "#PWR013" H 4700 3900 50  0001 C CNN
F 1 "GND" H 4705 3977 50  0000 C CNN
F 2 "" H 4700 4150 50  0001 C CNN
F 3 "" H 4700 4150 50  0001 C CNN
	1    4700 4150
	1    0    0    -1  
$EndComp
$Comp
L power:GND #PWR010
U 1 1 60F5A77B
P 3200 4150
F 0 "#PWR010" H 3200 3900 50  0001 C CNN
F 1 "GND" H 3205 3977 50  0000 C CNN
F 2 "" H 3200 4150 50  0001 C CNN
F 3 "" H 3200 4150 50  0001 C CNN
	1    3200 4150
	1    0    0    -1  
$EndComp
Text Label 4200 4250 0    50   ~ 0
PMOD_VCC
$Comp
L RemoteLabPiHAT-rescue:PMOD-Device-x2-Type-Generic-Alt-pmod JC1
U 1 1 60F5F46B
P 3650 6150
F 0 "JC1" H 3750 7030 60  0000 C CNN
F 1 "PMOD-Device-x2-Type-Generic-Alt" H 3750 6940 39  0000 C CNN
F 2 "pmod-conn_6x2:pmod_pin_array_6x2" H 3750 6040 39  0001 C CNN
F 3 "" H 3750 6450 60  0000 C CNN
	1    3650 6150
	1    0    0    -1  
$EndComp
Text Label 4150 5600 0    50   ~ 0
P3_1
Text Label 4150 5700 0    50   ~ 0
P3_2
Text Label 4150 5800 0    50   ~ 0
P3_3
Text Label 4150 5900 0    50   ~ 0
P3_4
Text Label 3200 5600 0    50   ~ 0
P3_5
Text Label 3200 5700 0    50   ~ 0
P3_6
Text Label 3200 5800 0    50   ~ 0
P3_7
Text Label 3200 5900 0    50   ~ 0
P3_8
$Comp
L power:GND #PWR014
U 1 1 60F5F49D
P 4750 6050
F 0 "#PWR014" H 4750 5800 50  0001 C CNN
F 1 "GND" H 4755 5877 50  0000 C CNN
F 2 "" H 4750 6050 50  0001 C CNN
F 3 "" H 4750 6050 50  0001 C CNN
	1    4750 6050
	1    0    0    -1  
$EndComp
$Comp
L power:GND #PWR011
U 1 1 60F5F4AF
P 3000 6000
F 0 "#PWR011" H 3000 5750 50  0001 C CNN
F 1 "GND" H 3005 5827 50  0000 C CNN
F 2 "" H 3000 6000 50  0001 C CNN
F 3 "" H 3000 6000 50  0001 C CNN
	1    3000 6000
	1    0    0    -1  
$EndComp
Text Label 4200 6100 0    50   ~ 0
PMOD_VCC
Wire Wire Line
	3000 6000 3350 6000
Text Label 1200 1600 0    50   ~ 0
SER1
Text Label 1200 3500 0    50   ~ 0
SER2
Text Label 1200 5600 0    50   ~ 0
SER3
Text Label 1150 1800 0    50   ~ 0
SRCLK
Text Label 1150 3700 0    50   ~ 0
SRCLK
Text Label 1150 5800 0    50   ~ 0
SRCLK
Text Label 1200 6100 0    50   ~ 0
PCLK
Text Label 1200 4000 0    50   ~ 0
PCLK
Text Label 1200 2100 0    50   ~ 0
PCLK
Text Label 2200 3500 0    50   ~ 0
P2_1
Text Label 2200 3600 0    50   ~ 0
P2_2
Text Label 2200 3700 0    50   ~ 0
P2_3
Text Label 2200 3800 0    50   ~ 0
P2_4
Text Label 2200 3900 0    50   ~ 0
P2_5
Text Label 2200 4000 0    50   ~ 0
P2_6
Text Label 2200 4100 0    50   ~ 0
P2_7
Text Label 2200 5600 0    50   ~ 0
P3_1
Text Label 2200 5700 0    50   ~ 0
P3_2
Text Label 2200 5800 0    50   ~ 0
P3_3
Text Label 2200 5900 0    50   ~ 0
P3_4
Text Label 2200 6000 0    50   ~ 0
P3_5
Text Label 2200 6100 0    50   ~ 0
P3_6
Text Label 2200 6200 0    50   ~ 0
P3_7
Text Label 2200 6300 0    50   ~ 0
P3_8
Text Label 1000 6200 0    50   ~ 0
PMOD_EN3
Text Label 1000 4100 0    50   ~ 0
PMOD_EN2
Text Label 1000 2200 0    50   ~ 0
PMOD_EN1
$Comp
L Device:R R1
U 1 1 60F04D0C
P 8750 1250
F 0 "R1" H 8820 1296 50  0000 L CNN
F 1 "3k9" H 8820 1205 50  0000 L CNN
F 2 "Resistor_THT:R_Axial_DIN0204_L3.6mm_D1.6mm_P7.62mm_Horizontal" V 8680 1250 50  0001 C CNN
F 3 "~" H 8750 1250 50  0001 C CNN
	1    8750 1250
	1    0    0    -1  
$EndComp
$Comp
L power:+3V3 #PWR015
U 1 1 60F0692F
P 8750 1050
F 0 "#PWR015" H 8750 900 50  0001 C CNN
F 1 "+3V3" H 8765 1223 50  0000 C CNN
F 2 "" H 8750 1050 50  0001 C CNN
F 3 "" H 8750 1050 50  0001 C CNN
	1    8750 1050
	1    0    0    -1  
$EndComp
Text Label 8750 1500 0    50   ~ 0
ID_SD
Text Label 7650 2500 0    50   ~ 0
ID_SD
Text Label 7650 2600 0    50   ~ 0
ID_SC
Text Label 9300 1500 0    50   ~ 0
ID_SC
$Comp
L Device:R R2
U 1 1 60F07222
P 9300 1250
F 0 "R2" H 9370 1296 50  0000 L CNN
F 1 "3k9" H 9370 1205 50  0000 L CNN
F 2 "Resistor_THT:R_Axial_DIN0204_L3.6mm_D1.6mm_P7.62mm_Horizontal" V 9230 1250 50  0001 C CNN
F 3 "~" H 9300 1250 50  0001 C CNN
	1    9300 1250
	1    0    0    -1  
$EndComp
$Comp
L power:+3V3 #PWR016
U 1 1 60F07C28
P 9300 1050
F 0 "#PWR016" H 9300 900 50  0001 C CNN
F 1 "+3V3" H 9315 1223 50  0000 C CNN
F 2 "" H 9300 1050 50  0001 C CNN
F 3 "" H 9300 1050 50  0001 C CNN
	1    9300 1050
	1    0    0    -1  
$EndComp
Text Label 8050 4200 0    50   ~ 0
PMOD_EN3
Text Label 5650 4000 0    50   ~ 0
SER3
Wire Wire Line
	7650 3100 8200 3100
Text Label 8200 3100 0    50   ~ 0
SER1
Text Label 5650 2900 0    50   ~ 0
PMOD_EN1
Wire Wire Line
	7650 3300 8200 3300
Wire Wire Line
	7650 3200 8200 3200
Text Label 8200 3200 0    50   ~ 0
SER2
Text Label 8200 3300 0    50   ~ 0
PMOD_EN2
Text Label 5700 3900 0    50   ~ 0
SRCLK
Wire Wire Line
	7650 4100 8200 4100
Text Label 8050 4100 0    50   ~ 0
PCLK
$Comp
L Connector:Conn_01x06_Male J2
U 1 1 60F6553F
P 10150 2800
F 0 "J2" H 10122 2682 50  0000 R CNN
F 1 "JTAG" H 10122 2773 50  0000 R CNN
F 2 "Connector_PinHeader_2.54mm:PinHeader_1x06_P2.54mm_Vertical" H 10150 2800 50  0001 C CNN
F 3 "~" H 10150 2800 50  0001 C CNN
	1    10150 2800
	-1   0    0    1   
$EndComp
Text Label 9800 3000 0    50   ~ 0
TMS
Text Label 9800 2900 0    50   ~ 0
TDI
Text Label 9800 2800 0    50   ~ 0
TDO
Text Label 9800 2700 0    50   ~ 0
TCK
Wire Wire Line
	9950 2600 9600 2600
Wire Wire Line
	9600 2600 9600 2700
$Comp
L power:GND #PWR0101
U 1 1 60F6C07B
P 9600 2700
F 0 "#PWR0101" H 9600 2450 50  0001 C CNN
F 1 "GND" H 9605 2527 50  0000 C CNN
F 2 "" H 9600 2700 50  0001 C CNN
F 3 "" H 9600 2700 50  0001 C CNN
	1    9600 2700
	1    0    0    -1  
$EndComp
Wire Wire Line
	1400 5900 950  5900
Connection ~ 950  1000
Wire Wire Line
	1800 1400 1800 1250
Wire Wire Line
	1800 1250 950  1250
Connection ~ 950  1250
Wire Wire Line
	950  1250 950  1000
Connection ~ 950  1900
Wire Wire Line
	950  1900 950  1250
Wire Wire Line
	1800 3300 1800 3100
Wire Wire Line
	1800 3100 950  3100
Connection ~ 950  3100
Wire Wire Line
	950  3100 950  1900
Wire Wire Line
	1400 3800 950  3800
Connection ~ 950  3800
Wire Wire Line
	950  3800 950  3100
Wire Wire Line
	1800 5400 1800 5200
Wire Wire Line
	1800 5200 950  5200
Wire Wire Line
	950  3800 950  5200
Connection ~ 950  5200
Wire Wire Line
	950  5200 950  5900
Wire Wire Line
	950  1900 1400 1900
Text Label 2200 4200 0    50   ~ 0
P2_8
Wire Wire Line
	2200 4200 2400 4200
Wire Wire Line
	2200 4100 2400 4100
Wire Wire Line
	2200 4000 2400 4000
Wire Wire Line
	2200 3900 2400 3900
Wire Wire Line
	2200 3800 2400 3800
Wire Wire Line
	2200 3700 2400 3700
Wire Wire Line
	2200 3600 2400 3600
Wire Wire Line
	2200 3500 2400 3500
Wire Wire Line
	1400 3500 1200 3500
Wire Wire Line
	1400 4000 1200 4000
Wire Wire Line
	3350 3750 3200 3750
Wire Wire Line
	3350 3850 3200 3850
Wire Wire Line
	3350 3950 3200 3950
Wire Wire Line
	3350 4050 3200 4050
Wire Wire Line
	4150 4250 4200 4250
Wire Wire Line
	4150 4050 4350 4050
Wire Wire Line
	4150 3950 4350 3950
Wire Wire Line
	4150 3850 4350 3850
Wire Wire Line
	4150 3750 4350 3750
Wire Wire Line
	3350 2200 3200 2200
Wire Wire Line
	3350 2300 3200 2300
Wire Wire Line
	3350 2400 3200 2400
Wire Wire Line
	3350 2500 3200 2500
Wire Wire Line
	4150 2200 4350 2200
Wire Wire Line
	4150 2300 4350 2300
Wire Wire Line
	4150 2400 4350 2400
Wire Wire Line
	4150 2500 4350 2500
Wire Wire Line
	4150 2700 4250 2700
Wire Wire Line
	4150 6100 4250 6100
Wire Wire Line
	4150 5900 4300 5900
Wire Wire Line
	4150 5800 4300 5800
Wire Wire Line
	4150 5700 4300 5700
Wire Wire Line
	4150 5600 4300 5600
Wire Wire Line
	3200 5600 3350 5600
Wire Wire Line
	3350 5700 3200 5700
Wire Wire Line
	3350 5800 3200 5800
Wire Wire Line
	3350 5900 3200 5900
Wire Wire Line
	2200 5600 2400 5600
Wire Wire Line
	2200 5700 2400 5700
Wire Wire Line
	2200 5800 2400 5800
Wire Wire Line
	2200 5900 2400 5900
Wire Wire Line
	2200 6000 2400 6000
Wire Wire Line
	2200 6100 2400 6100
Wire Wire Line
	2200 6200 2400 6200
Wire Wire Line
	2200 6300 2400 6300
Wire Wire Line
	2200 1600 2350 1600
Wire Wire Line
	2200 1700 2350 1700
Wire Wire Line
	2200 1800 2350 1800
Wire Wire Line
	2200 1900 2350 1900
Wire Wire Line
	2200 2000 2350 2000
Wire Wire Line
	2200 2100 2350 2100
Wire Wire Line
	2200 2200 2350 2200
Wire Wire Line
	2200 2300 2350 2300
NoConn ~ 6050 2500
NoConn ~ 6050 2600
NoConn ~ 6050 3300
NoConn ~ 6050 3400
NoConn ~ 7650 3500
NoConn ~ 7650 3600
NoConn ~ 7650 3700
NoConn ~ 7650 3800
NoConn ~ 7650 3900
NoConn ~ 7650 2800
NoConn ~ 7650 2900
NoConn ~ 2200 4400
NoConn ~ 2200 6500
NoConn ~ 2200 2500
Wire Wire Line
	1800 2750 1800 2700
Wire Wire Line
	9950 2700 9800 2700
Wire Wire Line
	9950 2800 9800 2800
Wire Wire Line
	9950 2900 9800 2900
Wire Wire Line
	9950 3000 9800 3000
NoConn ~ 6750 2100
NoConn ~ 6650 2100
Wire Wire Line
	4150 2600 4700 2600
Wire Wire Line
	3350 2700 3350 2800
Wire Wire Line
	3350 2800 4250 2800
Wire Wire Line
	4250 2800 4250 2700
Connection ~ 4250 2700
Wire Wire Line
	4250 2700 4350 2700
Wire Wire Line
	3200 2600 3350 2600
Wire Wire Line
	3350 4250 3350 4400
Wire Wire Line
	3350 4400 4200 4400
Wire Wire Line
	4200 4400 4200 4250
Connection ~ 4200 4250
Wire Wire Line
	4200 4250 4350 4250
Wire Wire Line
	4150 4150 4700 4150
Wire Wire Line
	3200 4150 3350 4150
Wire Wire Line
	3350 6100 3350 6250
Wire Wire Line
	3350 6250 4250 6250
Wire Wire Line
	4250 6250 4250 6100
Connection ~ 4250 6100
Wire Wire Line
	4250 6100 4400 6100
Wire Wire Line
	4150 6000 4750 6000
Wire Wire Line
	4750 6050 4750 6000
Wire Wire Line
	7150 4700 7150 4750
Wire Wire Line
	6800 4750 6750 4750
Wire Wire Line
	6750 4750 6750 4700
Connection ~ 6800 4750
Wire Wire Line
	6750 4750 6650 4750
Wire Wire Line
	6650 4750 6650 4700
Connection ~ 6750 4750
Wire Wire Line
	6650 4750 6550 4750
Wire Wire Line
	6550 4750 6550 4700
Connection ~ 6650 4750
Wire Wire Line
	6550 4750 6450 4750
Wire Wire Line
	6450 4750 6450 4700
Connection ~ 6550 4750
NoConn ~ 6050 2800
$Comp
L Device:LED D1
U 1 1 611FFC82
P 5550 3000
F 0 "D1" H 5543 3217 50  0000 C CNN
F 1 "LED" H 5543 3126 50  0000 C CNN
F 2 "LED_THT:LED_D3.0mm" H 5550 3000 50  0001 C CNN
F 3 "~" H 5550 3000 50  0001 C CNN
	1    5550 3000
	1    0    0    -1  
$EndComp
Wire Wire Line
	6050 3600 5700 3600
Wire Wire Line
	5700 3700 6050 3700
Wire Wire Line
	5700 3800 6050 3800
Wire Wire Line
	5700 3000 6050 3000
$Comp
L Device:R R3
U 1 1 6122D6E7
P 5250 3300
F 0 "R3" H 5320 3346 50  0000 L CNN
F 1 "150" H 5320 3255 50  0001 L CNN
F 2 "Resistor_THT:R_Axial_DIN0204_L3.6mm_D1.6mm_P7.62mm_Horizontal" V 5180 3300 50  0001 C CNN
F 3 "~" H 5250 3300 50  0001 C CNN
	1    5250 3300
	1    0    0    -1  
$EndComp
Wire Wire Line
	5250 3150 5250 3000
Wire Wire Line
	5250 3000 5400 3000
$Comp
L power:GND #PWR04
U 1 1 6123550D
P 5250 3550
F 0 "#PWR04" H 5250 3300 50  0001 C CNN
F 1 "GND" H 5255 3377 50  0000 C CNN
F 2 "" H 5250 3550 50  0001 C CNN
F 3 "" H 5250 3550 50  0001 C CNN
	1    5250 3550
	1    0    0    -1  
$EndComp
Wire Wire Line
	5250 3550 5250 3450
Wire Wire Line
	5700 3900 6050 3900
Wire Wire Line
	5700 4100 6050 4100
Wire Wire Line
	7650 4200 8200 4200
Wire Wire Line
	1000 4100 1400 4100
Wire Wire Line
	1150 3700 1400 3700
Wire Wire Line
	1000 2200 1400 2200
Wire Wire Line
	1200 2100 1400 2100
Wire Wire Line
	1200 1600 1400 1600
Wire Wire Line
	1150 1800 1400 1800
Wire Wire Line
	1000 6200 1400 6200
Wire Wire Line
	1200 6100 1400 6100
Wire Wire Line
	1150 5800 1400 5800
Wire Wire Line
	1200 5600 1400 5600
Wire Wire Line
	6800 4750 6800 4850
Wire Wire Line
	8750 1400 8750 1500
Wire Wire Line
	9300 1400 9300 1500
Wire Wire Line
	8750 1050 8750 1100
Wire Wire Line
	9300 1050 9300 1100
Wire Wire Line
	950  850  950  1000
Wire Wire Line
	5650 2900 6050 2900
Wire Wire Line
	5650 4000 6050 4000
Text Label 9500 2500 0    50   ~ 0
JTAG_SENSE
Wire Wire Line
	9500 2500 9950 2500
Text Label 5600 3200 0    50   ~ 0
JTAG_SENSE
Wire Wire Line
	5600 3200 6050 3200
$Comp
L Device:CP C1
U 1 1 61123FB7
P 2600 1400
F 0 "C1" H 2718 1446 50  0000 L CNN
F 1 "0.1uF" H 2718 1355 50  0000 L CNN
F 2 "Capacitor_SMD:C_0805_2012Metric_Pad1.18x1.45mm_HandSolder" H 2638 1250 50  0001 C CNN
F 3 "~" H 2600 1400 50  0001 C CNN
	1    2600 1400
	1    0    0    -1  
$EndComp
$Comp
L power:GND #PWR0102
U 1 1 611252C9
P 2600 1650
F 0 "#PWR0102" H 2600 1400 50  0001 C CNN
F 1 "GND" H 2605 1477 50  0000 C CNN
F 2 "" H 2600 1650 50  0001 C CNN
F 3 "" H 2600 1650 50  0001 C CNN
	1    2600 1650
	1    0    0    -1  
$EndComp
Wire Wire Line
	2600 1550 2600 1650
Wire Wire Line
	2600 1250 1800 1250
Connection ~ 1800 1250
$Comp
L Device:CP C2
U 1 1 61136F11
P 2600 3250
F 0 "C2" H 2718 3296 50  0000 L CNN
F 1 "0.1uF" H 2718 3205 50  0000 L CNN
F 2 "Capacitor_SMD:C_0805_2012Metric_Pad1.18x1.45mm_HandSolder" H 2638 3100 50  0001 C CNN
F 3 "~" H 2600 3250 50  0001 C CNN
	1    2600 3250
	1    0    0    -1  
$EndComp
$Comp
L power:GND #PWR0103
U 1 1 61137EED
P 2600 3500
F 0 "#PWR0103" H 2600 3250 50  0001 C CNN
F 1 "GND" H 2605 3327 50  0000 C CNN
F 2 "" H 2600 3500 50  0001 C CNN
F 3 "" H 2600 3500 50  0001 C CNN
	1    2600 3500
	1    0    0    -1  
$EndComp
Wire Wire Line
	2600 3500 2600 3400
Wire Wire Line
	2600 3100 1800 3100
Connection ~ 1800 3100
$Comp
L Device:CP C3
U 1 1 61147DC3
P 2600 5350
F 0 "C3" H 2718 5396 50  0000 L CNN
F 1 "0.1uF" H 2718 5305 50  0000 L CNN
F 2 "Capacitor_SMD:C_0805_2012Metric_Pad1.18x1.45mm_HandSolder" H 2638 5200 50  0001 C CNN
F 3 "~" H 2600 5350 50  0001 C CNN
	1    2600 5350
	1    0    0    -1  
$EndComp
Wire Wire Line
	2600 5200 1800 5200
Connection ~ 1800 5200
$Comp
L power:GND #PWR0104
U 1 1 61150CA9
P 2600 5600
F 0 "#PWR0104" H 2600 5350 50  0001 C CNN
F 1 "GND" H 2605 5427 50  0000 C CNN
F 2 "" H 2600 5600 50  0001 C CNN
F 3 "" H 2600 5600 50  0001 C CNN
	1    2600 5600
	1    0    0    -1  
$EndComp
Wire Wire Line
	2600 5600 2600 5500
Wire Wire Line
	7250 1900 7250 1850
$Comp
L power:GND #PWR0105
U 1 1 6116ECAC
P 7250 1900
F 0 "#PWR0105" H 7250 1650 50  0001 C CNN
F 1 "GND" H 7255 1727 50  0000 C CNN
F 2 "" H 7250 1900 50  0001 C CNN
F 3 "" H 7250 1900 50  0001 C CNN
	1    7250 1900
	1    0    0    -1  
$EndComp
$Comp
L Device:CP C4
U 1 1 6115C1FF
P 7250 1700
F 0 "C4" H 7368 1746 50  0000 L CNN
F 1 "10uF" H 7368 1655 50  0000 L CNN
F 2 "Capacitor_SMD:C_0805_2012Metric_Pad1.18x1.45mm_HandSolder" H 7288 1550 50  0001 C CNN
F 3 "~" H 7250 1700 50  0001 C CNN
	1    7250 1700
	1    0    0    -1  
$EndComp
Wire Wire Line
	7250 1550 7000 1550
Wire Wire Line
	7000 1550 7000 1350
$Comp
L power:+3V3 #PWR08
U 1 1 60F17E3F
P 7000 1350
F 0 "#PWR08" H 7000 1200 50  0001 C CNN
F 1 "+3V3" H 7015 1523 50  0000 C CNN
F 2 "" H 7000 1350 50  0001 C CNN
F 3 "" H 7000 1350 50  0001 C CNN
	1    7000 1350
	1    0    0    -1  
$EndComp
Wire Wire Line
	6950 2100 7000 2100
Connection ~ 7000 1550
Wire Wire Line
	7000 1550 7000 2100
Wire Wire Line
	7050 2100 7000 2100
Connection ~ 7000 2100
Wire Wire Line
	6950 4700 6950 4750
Connection ~ 6950 4750
Wire Wire Line
	6950 4750 7050 4750
Wire Wire Line
	7050 4700 7050 4750
Connection ~ 7050 4750
Wire Wire Line
	7050 4750 7150 4750
Wire Wire Line
	6800 4750 6950 4750
$EndSCHEMATC
